%YAML 1.1
%TAG !u! tag:unity3d.com,2011:
--- !u!114 &11400000
MonoBehaviour:
  m_ObjectHideFlags: 0
  m_PrefabParentObject: {fileID: 0}
  m_PrefabInternal: {fileID: 0}
  m_GameObject: {fileID: 0}
  m_Enabled: 1
  m_EditorHideFlags: 0
  m_Script: {fileID: 11500000, guid: 54e40ae610dc5ce45aa32b593790c0e4, type: 3}
  m_Name: TrashLookToggle
  m_EditorClassIdentifier: 
  triggerRules:
  - name: 13
    value: toggle
  changeDataSet:
  - name: 13
    value: look
  actionName: 
